{
  "project_info": {
    "project_number": "1026142624623",
    "project_id": "dicerollgame-1922a",
    "storage_bucket": "dicerollgame-1922a.appspot.com"
  },
  "client": [
    {
      "client_info": {
        "mobilesdk_app_id": "1:1026142624623:android:e2cf2783f33f1f8392e69a",
        "android_client_info": {
          "package_name": "com.nativemobilebits.loginflow"
        }
      },
      "oauth_client": [],
      "api_key": [
        {
          "current_key": "AIzaSyCPf4z6ElDuB7CYskwRQ9I1P5GfdMKw9QI"
        }
      ],
      "services": {
        "appinvite_service": {
          "other_platform_oauth_client": []
        }
      }
    }
  ],
  "configuration_version": "1"
}